EESchema Schematic File Version 2
LIBS:power
LIBS:device
LIBS:transistors
LIBS:conn
LIBS:linear
LIBS:regul
LIBS:74xx
LIBS:cmos4000
LIBS:adc-dac
LIBS:memory
LIBS:xilinx
LIBS:special
LIBS:microcontrollers
LIBS:dsp
LIBS:microchip
LIBS:analog_switches
LIBS:motorola
LIBS:texas
LIBS:intel
LIBS:audio
LIBS:interface
LIBS:digital-audio
LIBS:philips
LIBS:display
LIBS:cypress
LIBS:siliconi
LIBS:opto
LIBS:atmel
LIBS:contrib
LIBS:valves
LIBS:gametin
LIBS:EFM32GG330F1024
LIBS:OTM-02
LIBS:EFM32GG332F1024
LIBS:cpu_board-cache
EELAYER 27 0
EELAYER END
$Descr A3 16535 11693
encoding utf-8
Sheet 1 1
Title "Game Tin CPU Board"
Date "19 Dec 2013"
Rev "A"
Comp "ShiftHack"
Comment1 "CC BY-SA 4.0, IP4220CZ6 and EFM32GG332F1024 symbols designed by Hamish Mead"
Comment2 ""
Comment3 ""
Comment4 ""
$EndDescr
$Comp
L TPS62750 U3
U 1 1 5273026F
P 2650 8200
F 0 "U3" H 2500 8850 60  0000 C CNN
F 1 "TPS62750" H 2650 8750 60  0000 C CNN
F 2 "" H 2500 8150 60  0000 C CNN
F 3 "" H 2500 8150 60  0000 C CNN
	1    2650 8200
	1    0    0    -1  
$EndComp
$Comp
L USB_MICRO_B_VERT U1
U 1 1 5275C715
P 1150 1350
F 0 "U1" H 850 1300 60  0000 C CNN
F 1 "ZX62-B-5PA(11)" H 1200 2050 60  0000 C CNN
F 2 "" H 1050 1300 60  0000 C CNN
F 3 "" H 1050 1300 60  0000 C CNN
	1    1150 1350
	1    0    0    -1  
$EndComp
$Comp
L C C5
U 1 1 5275C7EC
P 4850 8250
F 0 "C5" H 4850 8350 40  0000 L CNN
F 1 "10u" H 4856 8165 40  0000 L CNN
F 2 "" H 4888 8100 30  0000 C CNN
F 3 "" H 4850 8250 60  0000 C CNN
	1    4850 8250
	1    0    0    -1  
$EndComp
$Comp
L C C1
U 1 1 5275C80A
P 1100 8200
F 0 "C1" H 1100 8300 40  0000 L CNN
F 1 "10u" H 1106 8115 40  0000 L CNN
F 2 "" H 1138 8050 30  0000 C CNN
F 3 "" H 1100 8200 60  0000 C CNN
	1    1100 8200
	1    0    0    -1  
$EndComp
$Comp
L R R10
U 1 1 5275C86B
P 4300 8850
F 0 "R10" V 4380 8850 40  0000 C CNN
F 1 "180k" V 4307 8851 40  0000 C CNN
F 2 "" V 4230 8850 30  0000 C CNN
F 3 "" H 4300 8850 30  0000 C CNN
	1    4300 8850
	1    0    0    -1  
$EndComp
$Comp
L R R9
U 1 1 5275C87A
P 4300 8250
F 0 "R9" V 4380 8250 40  0000 C CNN
F 1 "576k" V 4307 8251 40  0000 C CNN
F 2 "" V 4230 8250 30  0000 C CNN
F 3 "" H 4300 8250 30  0000 C CNN
	1    4300 8250
	1    0    0    -1  
$EndComp
$Comp
L R R2
U 1 1 5275C889
P 1600 8750
F 0 "R2" V 1680 8750 40  0000 C CNN
F 1 "49.9k" V 1607 8751 40  0000 C CNN
F 2 "" V 1530 8750 30  0000 C CNN
F 3 "" H 1600 8750 30  0000 C CNN
	1    1600 8750
	1    0    0    -1  
$EndComp
$Comp
L R R3
U 1 1 5275C898
P 1850 8750
F 0 "R3" V 1930 8750 40  0000 C CNN
F 1 "69.8k" V 1857 8751 40  0000 C CNN
F 2 "" V 1780 8750 30  0000 C CNN
F 3 "" H 1850 8750 30  0000 C CNN
	1    1850 8750
	1    0    0    -1  
$EndComp
$Comp
L INDUCTOR L3
U 1 1 5275C8F6
P 3800 7900
F 0 "L3" V 3750 7900 40  0000 C CNN
F 1 "2.2u" V 3900 7900 40  0000 C CNN
F 2 "" H 3800 7900 60  0000 C CNN
F 3 "" H 3800 7900 60  0000 C CNN
	1    3800 7900
	0    -1   -1   0   
$EndComp
$Comp
L SW_PUSH SW1
U 1 1 527EA527
P 15200 1700
F 0 "SW1" H 15350 1810 50  0000 C CNN
F 1 "UP" H 15200 1620 50  0000 C CNN
F 2 "" H 15200 1700 60  0000 C CNN
F 3 "" H 15200 1700 60  0000 C CNN
	1    15200 1700
	1    0    0    -1  
$EndComp
$Comp
L SW_PUSH SW3
U 1 1 527EA536
P 15200 2300
F 0 "SW3" H 15350 2410 50  0000 C CNN
F 1 "LEFT" H 15200 2220 50  0000 C CNN
F 2 "" H 15200 2300 60  0000 C CNN
F 3 "" H 15200 2300 60  0000 C CNN
	1    15200 2300
	1    0    0    -1  
$EndComp
$Comp
L SW_PUSH SW2
U 1 1 527EA609
P 15200 2000
F 0 "SW2" H 15350 2110 50  0000 C CNN
F 1 "DOWN" H 15200 1920 50  0000 C CNN
F 2 "" H 15200 2000 60  0000 C CNN
F 3 "" H 15200 2000 60  0000 C CNN
	1    15200 2000
	1    0    0    -1  
$EndComp
$Comp
L SW_PUSH SW4
U 1 1 527EABB4
P 15200 2600
F 0 "SW4" H 15350 2710 50  0000 C CNN
F 1 "RIGHT" H 15200 2520 50  0000 C CNN
F 2 "" H 15200 2600 60  0000 C CNN
F 3 "" H 15200 2600 60  0000 C CNN
	1    15200 2600
	1    0    0    -1  
$EndComp
$Comp
L SW_PUSH SW6
U 1 1 527EAD90
P 15200 3200
F 0 "SW6" H 15350 3310 50  0000 C CNN
F 1 "B" H 15200 3120 50  0000 C CNN
F 2 "" H 15200 3200 60  0000 C CNN
F 3 "" H 15200 3200 60  0000 C CNN
	1    15200 3200
	1    0    0    -1  
$EndComp
$Comp
L SW_PUSH SW5
U 1 1 527EAD9F
P 15200 2900
F 0 "SW5" H 15350 3010 50  0000 C CNN
F 1 "A" H 15200 2820 50  0000 C CNN
F 2 "" H 15200 2900 60  0000 C CNN
F 3 "" H 15200 2900 60  0000 C CNN
	1    15200 2900
	1    0    0    -1  
$EndComp
$Comp
L R R15
U 1 1 528190F4
P 13900 1300
F 0 "R15" V 13980 1300 40  0000 C CNN
F 1 "1M" V 13907 1301 40  0000 C CNN
F 2 "" V 13830 1300 30  0000 C CNN
F 3 "" H 13900 1300 30  0000 C CNN
	1    13900 1300
	1    0    0    -1  
$EndComp
$Comp
L R R14
U 1 1 52819103
P 13700 1300
F 0 "R14" V 13780 1300 40  0000 C CNN
F 1 "1M" V 13707 1301 40  0000 C CNN
F 2 "" V 13630 1300 30  0000 C CNN
F 3 "" H 13700 1300 30  0000 C CNN
	1    13700 1300
	1    0    0    -1  
$EndComp
Text Notes 1300 600  0    60   ~ 12
USB Micro B Connection
$Comp
L R R4
U 1 1 52884C59
P 2500 1950
F 0 "R4" V 2580 1950 40  0000 C CNN
F 1 "15" V 2507 1951 40  0000 C CNN
F 2 "" V 2430 1950 30  0000 C CNN
F 3 "" H 2500 1950 30  0000 C CNN
	1    2500 1950
	0    -1   -1   0   
$EndComp
$Comp
L R R5
U 1 1 52884C68
P 2500 2100
F 0 "R5" V 2580 2100 40  0000 C CNN
F 1 "15" V 2507 2101 40  0000 C CNN
F 2 "" V 2430 2100 30  0000 C CNN
F 3 "" H 2500 2100 30  0000 C CNN
	1    2500 2100
	0    -1   -1   0   
$EndComp
$Comp
L GND #PWR01
U 1 1 52884EE1
P 1850 1400
F 0 "#PWR01" H 1850 1400 30  0001 C CNN
F 1 "GND" H 1850 1330 30  0001 C CNN
F 2 "" H 1850 1400 60  0000 C CNN
F 3 "" H 1850 1400 60  0000 C CNN
	1    1850 1400
	1    0    0    -1  
$EndComp
$Comp
L GND #PWR02
U 1 1 52884EF0
P 550 1400
F 0 "#PWR02" H 550 1400 30  0001 C CNN
F 1 "GND" H 550 1330 30  0001 C CNN
F 2 "" H 550 1400 60  0000 C CNN
F 3 "" H 550 1400 60  0000 C CNN
	1    550  1400
	1    0    0    -1  
$EndComp
$Comp
L GND #PWR03
U 1 1 52885171
P 1800 2950
F 0 "#PWR03" H 1800 2950 30  0001 C CNN
F 1 "GND" H 1800 2880 30  0001 C CNN
F 2 "" H 1800 2950 60  0000 C CNN
F 3 "" H 1800 2950 60  0000 C CNN
	1    1800 2950
	1    0    0    -1  
$EndComp
$Comp
L GND #PWR04
U 1 1 528851A6
P 1400 1750
F 0 "#PWR04" H 1400 1750 30  0001 C CNN
F 1 "GND" H 1400 1680 30  0001 C CNN
F 2 "" H 1400 1750 60  0000 C CNN
F 3 "" H 1400 1750 60  0000 C CNN
	1    1400 1750
	1    0    0    -1  
$EndComp
$Comp
L PWR_FLAG #FLG05
U 1 1 5288552A
P 2200 900
F 0 "#FLG05" H 2200 995 30  0001 C CNN
F 1 "PWR_FLAG" H 2200 1080 30  0000 C CNN
F 2 "" H 2200 900 60  0000 C CNN
F 3 "" H 2200 900 60  0000 C CNN
	1    2200 900 
	1    0    0    -1  
$EndComp
Text Notes 2000 7400 0    60   ~ 12
USB Buck Ultracapacitor Charger
Text Notes 12950 650  0    60   ~ 12
Gamepad Buttons
Text Notes 1300 5300 0    60   ~ 0
Debug Interface
Text Notes 2200 9850 0    60   ~ 0
Ultracapacitor Boost
Text Notes 4550 600  0    60   ~ 12
Power Selector
$Comp
L TPS61221 U4
U 1 1 52DAB809
P 2650 10500
F 0 "U4" H 2550 10150 60  0000 C CNN
F 1 "TPS61221" H 2700 10050 60  0000 C CNN
F 2 "" H 2650 10500 60  0000 C CNN
F 3 "" H 2650 10500 60  0000 C CNN
	1    2650 10500
	1    0    0    -1  
$EndComp
Text Notes 2150 2400 0    60   ~ 0
ESD Protection
$Comp
L INDUCTOR L1
U 1 1 52DAD9F4
P 1700 10150
F 0 "L1" V 1650 10150 40  0000 C CNN
F 1 "4.7u" V 1800 10150 40  0000 C CNN
F 2 "" H 1700 10150 60  0000 C CNN
F 3 "" H 1700 10150 60  0000 C CNN
	1    1700 10150
	0    -1   -1   0   
$EndComp
$Comp
L C C2
U 1 1 52DADA03
P 1200 10650
F 0 "C2" H 1200 10750 40  0000 L CNN
F 1 "10u" H 1206 10565 40  0000 L CNN
F 2 "" H 1238 10500 30  0000 C CNN
F 3 "" H 1200 10650 60  0000 C CNN
	1    1200 10650
	1    0    0    -1  
$EndComp
$Comp
L C C3
U 1 1 52DADA12
P 3700 10450
F 0 "C3" H 3700 10550 40  0000 L CNN
F 1 "10u" H 3706 10365 40  0000 L CNN
F 2 "" H 3738 10300 30  0000 C CNN
F 3 "" H 3700 10450 60  0000 C CNN
	1    3700 10450
	1    0    0    -1  
$EndComp
$Comp
L BOARDFPC U2
U 1 1 52DADB55
P 1800 4000
F 0 "U2" H 2200 4600 60  0000 C CNN
F 1 "BOARDFPC" H 2000 3400 60  0000 C CNN
F 2 "" H 1650 3650 60  0000 C CNN
F 3 "" H 1650 3650 60  0000 C CNN
	1    1800 4000
	-1   0    0    -1  
$EndComp
Text Notes 4000 750  0    60   ~ 0
Use LDO when USB is plugged in, \nCap Boost when USB is unplugged
$Comp
L GND #PWR06
U 1 1 52DAE2F1
P 3700 10750
F 0 "#PWR06" H 3700 10750 30  0001 C CNN
F 1 "GND" H 3700 10680 30  0001 C CNN
F 2 "" H 3700 10750 60  0000 C CNN
F 3 "" H 3700 10750 60  0000 C CNN
	1    3700 10750
	1    0    0    -1  
$EndComp
$Comp
L GND #PWR07
U 1 1 52DAE5D7
P 2050 11000
F 0 "#PWR07" H 2050 11000 30  0001 C CNN
F 1 "GND" H 2050 10930 30  0001 C CNN
F 2 "" H 2050 11000 60  0000 C CNN
F 3 "" H 2050 11000 60  0000 C CNN
	1    2050 11000
	1    0    0    -1  
$EndComp
$Comp
L GND #PWR08
U 1 1 52DAE7D1
P 1200 11000
F 0 "#PWR08" H 1200 11000 30  0001 C CNN
F 1 "GND" H 1200 10930 30  0001 C CNN
F 2 "" H 1200 11000 60  0000 C CNN
F 3 "" H 1200 11000 60  0000 C CNN
	1    1200 11000
	1    0    0    -1  
$EndComp
$Comp
L IP4220CZ6 D1
U 1 1 52E06AA6
P 1700 2400
F 0 "D1" H 1500 2200 60  0000 R CNN
F 1 "IP4220CZ6" H 1500 2100 60  0000 R CNN
F 2 "" H 1700 2400 60  0000 C CNN
F 3 "" H 1700 2400 60  0000 C CNN
	1    1700 2400
	1    0    0    -1  
$EndComp
$Comp
L SW_PUSH SW7
U 1 1 53014F07
P 14550 4500
F 0 "SW7" H 14700 4610 50  0000 C CNN
F 1 "POWER" H 14550 4420 50  0000 C CNN
F 2 "" H 14550 4500 60  0000 C CNN
F 3 "" H 14550 4500 60  0000 C CNN
	1    14550 4500
	1    0    0    -1  
$EndComp
$Comp
L SW_PUSH SW8
U 1 1 53015053
P 14550 4800
F 0 "SW8" H 14700 4910 50  0000 C CNN
F 1 "OPTION" H 14550 4720 50  0000 C CNN
F 2 "" H 14550 4800 60  0000 C CNN
F 3 "" H 14550 4800 60  0000 C CNN
	1    14550 4800
	1    0    0    -1  
$EndComp
$Comp
L R R16
U 1 1 53015C40
P 14100 1300
F 0 "R16" V 14180 1300 40  0000 C CNN
F 1 "1M" V 14107 1301 40  0000 C CNN
F 2 "" V 14030 1300 30  0000 C CNN
F 3 "" H 14100 1300 30  0000 C CNN
	1    14100 1300
	1    0    0    -1  
$EndComp
$Comp
L R R17
U 1 1 53015C4F
P 14300 1300
F 0 "R17" V 14380 1300 40  0000 C CNN
F 1 "1M" V 14307 1301 40  0000 C CNN
F 2 "" V 14230 1300 30  0000 C CNN
F 3 "" H 14300 1300 30  0000 C CNN
	1    14300 1300
	1    0    0    -1  
$EndComp
$Comp
L R R18
U 1 1 53015C5E
P 14500 1300
F 0 "R18" V 14580 1300 40  0000 C CNN
F 1 "1M" V 14507 1301 40  0000 C CNN
F 2 "" V 14430 1300 30  0000 C CNN
F 3 "" H 14500 1300 30  0000 C CNN
	1    14500 1300
	1    0    0    -1  
$EndComp
$Comp
L R R19
U 1 1 53015C6D
P 14700 1300
F 0 "R19" V 14780 1300 40  0000 C CNN
F 1 "1M" V 14707 1301 40  0000 C CNN
F 2 "" V 14630 1300 30  0000 C CNN
F 3 "" H 14700 1300 30  0000 C CNN
	1    14700 1300
	1    0    0    -1  
$EndComp
$Comp
L +3.3V #PWR09
U 1 1 53015C9A
P 14200 800
F 0 "#PWR09" H 14200 760 30  0001 C CNN
F 1 "+3.3V" H 14200 910 30  0000 C CNN
F 2 "" H 14200 800 60  0000 C CNN
F 3 "" H 14200 800 60  0000 C CNN
	1    14200 800 
	1    0    0    -1  
$EndComp
$Comp
L GND #PWR010
U 1 1 53016000
P 15600 3450
F 0 "#PWR010" H 15600 3450 30  0001 C CNN
F 1 "GND" H 15600 3380 30  0001 C CNN
F 2 "" H 15600 3450 60  0000 C CNN
F 3 "" H 15600 3450 60  0000 C CNN
	1    15600 3450
	1    0    0    -1  
$EndComp
Wire Wire Line
	1200 1650 1200 1950
Wire Wire Line
	1200 1950 2250 1950
Wire Wire Line
	1100 1650 1100 2100
Wire Wire Line
	1100 2100 2250 2100
Wire Wire Line
	1800 2800 1800 2950
Wire Wire Line
	1400 1650 1400 1750
Wire Wire Line
	1900 2400 1900 1950
Connection ~ 1900 1950
Wire Wire Line
	1700 2400 1700 2100
Connection ~ 1700 2100
Wire Wire Line
	1000 1650 1000 1850
Wire Wire Line
	1000 1850 2200 1850
Wire Wire Line
	2200 1850 2200 900 
Wire Wire Line
	1200 10850 1200 11000
Wire Wire Line
	3700 10650 3700 10750
Wire Wire Line
	13700 1050 13700 950 
Wire Wire Line
	14700 1050 14700 950 
Wire Wire Line
	14500 1050 14500 950 
Connection ~ 14500 950 
Wire Wire Line
	14300 1050 14300 950 
Connection ~ 14300 950 
Wire Wire Line
	14100 1050 14100 950 
Connection ~ 14100 950 
Wire Wire Line
	13900 1050 13900 950 
Connection ~ 13900 950 
Wire Wire Line
	15500 3200 15600 3200
Wire Wire Line
	15600 1700 15600 3450
Wire Wire Line
	15500 1700 15600 1700
Connection ~ 15600 3200
Wire Wire Line
	15500 2000 15600 2000
Connection ~ 15600 2000
Wire Wire Line
	15500 2300 15600 2300
Connection ~ 15600 2300
Wire Wire Line
	15500 2600 15600 2600
Connection ~ 15600 2600
Wire Wire Line
	15500 2900 15600 2900
Connection ~ 15600 2900
Text GLabel 13450 1700 0    51   Output ~ 0
UP
Wire Wire Line
	13700 1550 13700 1700
Connection ~ 13700 1700
Text GLabel 13450 2000 0    51   Output ~ 0
DOWN
Text GLabel 13450 2300 0    51   Output ~ 0
LEFT
Text GLabel 13450 2600 0    51   Output ~ 0
RIGHT
Text GLabel 13450 2900 0    51   Output ~ 0
A
Text GLabel 13450 3200 0    51   Output ~ 0
B
Wire Wire Line
	13900 1550 13900 2000
Connection ~ 13900 2000
Wire Wire Line
	14100 1550 14100 2300
Connection ~ 14100 2300
Wire Wire Line
	14300 1550 14300 2600
Connection ~ 14300 2600
Wire Wire Line
	14500 1550 14500 2900
Connection ~ 14500 2900
Wire Wire Line
	14700 1550 14700 3200
Connection ~ 14700 3200
$Comp
L EFM32GG332F1024 U7
U 1 1 53460254
P 7800 8950
F 0 "U7" H 8130 9130 60  0000 L BNN
F 1 "EFM32GG332F1024" H 8430 9130 60  0000 L BNN
F 2 "" H 7800 8950 60  0000 C CNN
F 3 "" H 7800 8950 60  0000 C CNN
	1    7800 8950
	1    0    0    -1  
$EndComp
$Comp
L EFM32GG332F1024 U7
U 2 1 53460263
P 7800 6250
F 0 "U7" H 8130 6430 60  0000 L BNN
F 1 "EFM32GG332F1024" H 8430 6430 60  0000 L BNN
F 2 "" H 7800 6250 60  0000 C CNN
F 3 "" H 7800 6250 60  0000 C CNN
	2    7800 6250
	1    0    0    -1  
$EndComp
$Comp
L EFM32GG332F1024 U7
U 3 1 53460272
P 7800 4150
F 0 "U7" H 8130 4330 60  0000 L BNN
F 1 "EFM32GG332F1024" H 8430 4330 60  0000 L BNN
F 2 "" H 7800 4150 60  0000 C CNN
F 3 "" H 7800 4150 60  0000 C CNN
	3    7800 4150
	1    0    0    -1  
$EndComp
$Comp
L EFM32GG332F1024 U7
U 4 1 53460281
P 8450 1200
F 0 "U7" H 8780 1380 60  0000 L BNN
F 1 "EFM32GG332F1024" H 9080 1380 60  0000 L BNN
F 2 "" H 8450 1200 60  0000 C CNN
F 3 "" H 8450 1200 60  0000 C CNN
	4    8450 1200
	1    0    0    -1  
$EndComp
$Comp
L GND #PWR011
U 1 1 5349B2D0
P 10200 3250
F 0 "#PWR011" H 10200 3250 30  0001 C CNN
F 1 "GND" H 10200 3180 30  0001 C CNN
F 2 "" H 10200 3250 60  0000 C CNN
F 3 "" H 10200 3250 60  0000 C CNN
	1    10200 3250
	1    0    0    -1  
$EndComp
Wire Wire Line
	10050 3000 10200 3000
Wire Wire Line
	10200 2800 10200 3250
Wire Wire Line
	10050 2900 10200 2900
Connection ~ 10200 3000
Wire Wire Line
	10050 2800 10200 2800
Connection ~ 10200 2900
$Comp
L C C11
U 1 1 5349B512
P 8300 2700
F 0 "C11" H 8300 2800 40  0000 L CNN
F 1 "10n" H 8306 2615 40  0000 L CNN
F 2 "" H 8338 2550 30  0000 C CNN
F 3 "" H 8300 2700 60  0000 C CNN
	1    8300 2700
	1    0    0    -1  
$EndComp
$Comp
L C C10
U 1 1 5349B521
P 8000 2700
F 0 "C10" H 8000 2800 40  0000 L CNN
F 1 "10n" H 8006 2615 40  0000 L CNN
F 2 "" H 8038 2550 30  0000 C CNN
F 3 "" H 8000 2700 60  0000 C CNN
	1    8000 2700
	1    0    0    -1  
$EndComp
$Comp
L C C8
U 1 1 5349B530
P 7700 2700
F 0 "C8" H 7700 2800 40  0000 L CNN
F 1 "10u" H 7706 2615 40  0000 L CNN
F 2 "" H 7738 2550 30  0000 C CNN
F 3 "" H 7700 2700 60  0000 C CNN
	1    7700 2700
	1    0    0    -1  
$EndComp
$Comp
L GND #PWR012
U 1 1 5349B679
P 7700 3200
F 0 "#PWR012" H 7700 3200 30  0001 C CNN
F 1 "GND" H 7700 3130 30  0001 C CNN
F 2 "" H 7700 3200 60  0000 C CNN
F 3 "" H 7700 3200 60  0000 C CNN
	1    7700 3200
	1    0    0    -1  
$EndComp
Wire Wire Line
	8450 2300 8300 2300
Wire Wire Line
	7500 2400 8450 2400
Wire Wire Line
	8300 2300 8300 2500
Wire Wire Line
	8000 2400 8000 2500
Connection ~ 8300 2400
Wire Wire Line
	7700 2400 7700 2500
Connection ~ 8000 2400
Wire Wire Line
	8300 3000 8300 2900
Wire Wire Line
	7700 3000 8300 3000
Wire Wire Line
	8000 3000 8000 2900
Wire Wire Line
	7700 2900 7700 3200
Connection ~ 8000 3000
Connection ~ 7700 3000
$Comp
L R R13
U 1 1 5349C11F
P 7250 2400
F 0 "R13" V 7330 2400 40  0000 C CNN
F 1 "1" V 7257 2401 40  0000 C CNN
F 2 "" V 7180 2400 30  0000 C CNN
F 3 "" H 7250 2400 30  0000 C CNN
	1    7250 2400
	0    -1   -1   0   
$EndComp
$Comp
L INDUCTOR L4
U 1 1 5349C277
P 6900 2000
F 0 "L4" V 6850 2000 40  0000 C CNN
F 1 "742792662" V 7000 2000 40  0000 C CNN
F 2 "" H 6900 2000 60  0000 C CNN
F 3 "" H 6900 2000 60  0000 C CNN
	1    6900 2000
	-1   0    0    1   
$EndComp
$Comp
L C C13
U 1 1 5349C4FE
P 10500 2300
F 0 "C13" H 10500 2400 40  0000 L CNN
F 1 "100n" H 10506 2215 40  0000 L CNN
F 2 "" H 10538 2150 30  0000 C CNN
F 3 "" H 10500 2300 60  0000 C CNN
	1    10500 2300
	1    0    0    -1  
$EndComp
Wire Wire Line
	10050 2000 11400 2000
Wire Wire Line
	10200 2000 10200 2400
Wire Wire Line
	10200 2400 10050 2400
Wire Wire Line
	10050 2300 10200 2300
Connection ~ 10200 2300
Wire Wire Line
	10050 2200 10200 2200
Connection ~ 10200 2200
Wire Wire Line
	10500 2000 10500 2100
Connection ~ 10200 2000
$Comp
L C C14
U 1 1 5349C6D5
P 10800 2300
F 0 "C14" H 10800 2400 40  0000 L CNN
F 1 "100n" H 10806 2215 40  0000 L CNN
F 2 "" H 10838 2150 30  0000 C CNN
F 3 "" H 10800 2300 60  0000 C CNN
	1    10800 2300
	1    0    0    -1  
$EndComp
Wire Wire Line
	10800 2000 10800 2100
Connection ~ 10500 2000
$Comp
L C C15
U 1 1 5349C88B
P 11100 2300
F 0 "C15" H 11100 2400 40  0000 L CNN
F 1 "100n" H 11106 2215 40  0000 L CNN
F 2 "" H 11138 2150 30  0000 C CNN
F 3 "" H 11100 2300 60  0000 C CNN
	1    11100 2300
	1    0    0    -1  
$EndComp
Wire Wire Line
	11100 2000 11100 2100
Connection ~ 10800 2000
$Comp
L C C16
U 1 1 5349CA43
P 11400 2300
F 0 "C16" H 11400 2400 40  0000 L CNN
F 1 "10u" H 11406 2215 40  0000 L CNN
F 2 "" H 11438 2150 30  0000 C CNN
F 3 "" H 11400 2300 60  0000 C CNN
	1    11400 2300
	1    0    0    -1  
$EndComp
Wire Wire Line
	11400 850  11400 2100
Connection ~ 11100 2000
Wire Wire Line
	10500 2500 10500 2600
Wire Wire Line
	10500 2600 11400 2600
Wire Wire Line
	11400 2500 11400 2800
Wire Wire Line
	11100 2500 11100 2600
Connection ~ 11100 2600
Wire Wire Line
	10800 2500 10800 2600
Connection ~ 10800 2600
$Comp
L GND #PWR013
U 1 1 5349D003
P 11400 2800
F 0 "#PWR013" H 11400 2800 30  0001 C CNN
F 1 "GND" H 11400 2730 30  0001 C CNN
F 2 "" H 11400 2800 60  0000 C CNN
F 3 "" H 11400 2800 60  0000 C CNN
	1    11400 2800
	1    0    0    -1  
$EndComp
Connection ~ 11400 2600
$Comp
L C C12
U 1 1 5349D300
P 10200 1500
F 0 "C12" H 10200 1600 40  0000 L CNN
F 1 "1u" H 10206 1415 40  0000 L CNN
F 2 "" H 10238 1350 30  0000 C CNN
F 3 "" H 10200 1500 60  0000 C CNN
	1    10200 1500
	1    0    0    -1  
$EndComp
Wire Wire Line
	10050 1200 10200 1200
Wire Wire Line
	10200 1200 10200 1300
$Comp
L GND #PWR014
U 1 1 5349D38A
P 10200 1800
F 0 "#PWR014" H 10200 1800 30  0001 C CNN
F 1 "GND" H 10200 1730 30  0001 C CNN
F 2 "" H 10200 1800 60  0000 C CNN
F 3 "" H 10200 1800 60  0000 C CNN
	1    10200 1800
	1    0    0    -1  
$EndComp
Wire Wire Line
	10200 1700 10200 1800
$Comp
L FDC6420C U6
U 1 1 5351EB4D
P 5200 1650
F 0 "U6" H 5000 1950 60  0000 C CNN
F 1 "FDC6420C" H 5200 1350 60  0000 C CNN
F 2 "" H 5250 1350 60  0000 C CNN
F 3 "" H 5250 1350 60  0000 C CNN
	1    5200 1650
	1    0    0    -1  
$EndComp
Text GLabel 4000 1000 0    60   Input ~ 0
VREG0
Text GLabel 4000 2850 0    60   Input ~ 0
VBOOST
$Comp
L R R11
U 1 1 5351EEE7
P 4400 1650
F 0 "R11" V 4480 1650 40  0000 C CNN
F 1 "4.7k" V 4407 1651 40  0000 C CNN
F 2 "" V 4330 1650 30  0000 C CNN
F 3 "" H 4400 1650 30  0000 C CNN
	1    4400 1650
	1    0    0    -1  
$EndComp
$Comp
L R R12
U 1 1 5351EEF6
P 4400 2250
F 0 "R12" V 4480 2250 40  0000 C CNN
F 1 "6.8k" V 4407 2251 40  0000 C CNN
F 2 "" V 4330 2250 30  0000 C CNN
F 3 "" H 4400 2250 30  0000 C CNN
	1    4400 2250
	1    0    0    -1  
$EndComp
Wire Wire Line
	3750 1350 4650 1350
Wire Wire Line
	4400 1350 4400 1400
Wire Wire Line
	4400 1900 4400 2000
$Comp
L GND #PWR015
U 1 1 5351F00D
P 4400 2600
F 0 "#PWR015" H 4400 2600 30  0001 C CNN
F 1 "GND" H 4400 2530 30  0001 C CNN
F 2 "" H 4400 2600 60  0000 C CNN
F 3 "" H 4400 2600 60  0000 C CNN
	1    4400 2600
	1    0    0    -1  
$EndComp
Wire Wire Line
	4400 2500 4400 2600
Connection ~ 4400 1350
Wire Wire Line
	4650 1950 4400 1950
Connection ~ 4400 1950
$Comp
L C C9
U 1 1 535287C2
P 7900 1900
F 0 "C9" H 7900 2000 40  0000 L CNN
F 1 "1u" H 7906 1815 40  0000 L CNN
F 2 "" H 7938 1750 30  0000 C CNN
F 3 "" H 7900 1900 60  0000 C CNN
	1    7900 1900
	0    -1   -1   0   
$EndComp
$Comp
L C C7
U 1 1 5352893A
P 7600 1600
F 0 "C7" H 7600 1700 40  0000 L CNN
F 1 "4.7u" H 7606 1515 40  0000 L CNN
F 2 "" H 7638 1450 30  0000 C CNN
F 3 "" H 7600 1600 60  0000 C CNN
	1    7600 1600
	1    0    0    -1  
$EndComp
Text GLabel 4050 10150 2    60   Output ~ 0
VBOOST
Wire Wire Line
	8450 1600 8100 1600
Wire Wire Line
	8100 800  8100 1800
Wire Wire Line
	8100 1800 8450 1800
Connection ~ 8100 1600
Wire Wire Line
	7600 1400 7600 1350
Wire Wire Line
	7600 1350 8100 1350
Connection ~ 8100 1350
Wire Wire Line
	7600 1800 7600 2000
Wire Wire Line
	7600 1900 7700 1900
Wire Wire Line
	8100 1900 8450 1900
$Comp
L GND #PWR016
U 1 1 5352A304
P 7600 2000
F 0 "#PWR016" H 7600 2000 30  0001 C CNN
F 1 "GND" H 7600 1930 30  0001 C CNN
F 2 "" H 7600 2000 60  0000 C CNN
F 3 "" H 7600 2000 60  0000 C CNN
	1    7600 2000
	1    0    0    -1  
$EndComp
Connection ~ 7600 1900
Connection ~ 7700 2400
Wire Wire Line
	6900 2300 6900 2400
Wire Wire Line
	6900 2400 7000 2400
Wire Wire Line
	6900 1150 6900 1700
Connection ~ 11400 2000
Text Notes 8800 700  0    60   ~ 0
Power Supply Decoupling
Text GLabel 2900 2100 2    60   Output ~ 0
USB_DM
Text GLabel 2900 1950 2    60   Output ~ 0
USB_DP
$Comp
L INDUCTOR L2
U 1 1 5352B77F
P 2600 1250
F 0 "L2" V 2550 1250 40  0000 C CNN
F 1 "742792022" V 2700 1250 40  0000 C CNN
F 2 "" H 2600 1250 60  0000 C CNN
F 3 "" H 2600 1250 60  0000 C CNN
	1    2600 1250
	0    -1   -1   0   
$EndComp
Wire Wire Line
	2300 1250 2200 1250
Connection ~ 2200 1250
Wire Wire Line
	2900 1250 3100 1250
Wire Wire Line
	2750 1950 2900 1950
Wire Wire Line
	2750 2100 2900 2100
Wire Wire Line
	1800 2400 1800 1850
Connection ~ 1800 1850
Wire Wire Line
	1700 2800 1700 2900
Wire Wire Line
	1700 2900 1550 2900
Wire Wire Line
	1550 2900 1550 2100
Connection ~ 1550 2100
Wire Wire Line
	1900 2800 1900 2900
Wire Wire Line
	1900 2900 2050 2900
Wire Wire Line
	2050 2900 2050 1950
Connection ~ 2050 1950
Wire Wire Line
	3250 10150 4050 10150
Wire Wire Line
	3700 10250 3700 10150
Connection ~ 3700 10150
Wire Wire Line
	3250 10350 3400 10350
Wire Wire Line
	3400 10350 3400 10150
Connection ~ 3400 10150
Wire Wire Line
	2100 10650 2050 10650
Wire Wire Line
	2050 10650 2050 11000
Wire Wire Line
	2100 10450 2050 10450
Wire Wire Line
	2050 10450 2050 10350
Connection ~ 2050 10350
Text GLabel 950  10350 0    60   Input ~ 0
VCAP
Wire Wire Line
	2100 10150 2000 10150
Wire Wire Line
	950  10350 2100 10350
Wire Wire Line
	1200 10350 1200 10450
Connection ~ 1200 10350
Wire Wire Line
	1400 10150 1300 10150
Wire Wire Line
	1300 10150 1300 10350
Connection ~ 1300 10350
Wire Wire Line
	2000 8400 1850 8400
Wire Wire Line
	1850 8400 1850 8500
Wire Wire Line
	2000 8300 1600 8300
Wire Wire Line
	1600 8300 1600 8500
$Comp
L GND #PWR017
U 1 1 53534E7F
P 1850 9100
F 0 "#PWR017" H 1850 9100 30  0001 C CNN
F 1 "GND" H 1850 9030 30  0001 C CNN
F 2 "" H 1850 9100 60  0000 C CNN
F 3 "" H 1850 9100 60  0000 C CNN
	1    1850 9100
	1    0    0    -1  
$EndComp
$Comp
L GND #PWR018
U 1 1 53534E8E
P 1600 9100
F 0 "#PWR018" H 1600 9100 30  0001 C CNN
F 1 "GND" H 1600 9030 30  0001 C CNN
F 2 "" H 1600 9100 60  0000 C CNN
F 3 "" H 1600 9100 60  0000 C CNN
	1    1600 9100
	1    0    0    -1  
$EndComp
Wire Wire Line
	1850 9000 1850 9100
Wire Wire Line
	1600 9000 1600 9100
Wire Wire Line
	700  7900 2000 7900
Wire Wire Line
	2000 8000 1850 8000
Connection ~ 1850 7900
$Comp
L GND #PWR019
U 1 1 535355BE
P 1100 8500
F 0 "#PWR019" H 1100 8500 30  0001 C CNN
F 1 "GND" H 1100 8430 30  0001 C CNN
F 2 "" H 1100 8500 60  0000 C CNN
F 3 "" H 1100 8500 60  0000 C CNN
	1    1100 8500
	1    0    0    -1  
$EndComp
$Comp
L GND #PWR020
U 1 1 53535979
P 3450 8600
F 0 "#PWR020" H 3450 8600 30  0001 C CNN
F 1 "GND" H 3450 8530 30  0001 C CNN
F 2 "" H 3450 8600 60  0000 C CNN
F 3 "" H 3450 8600 60  0000 C CNN
	1    3450 8600
	1    0    0    -1  
$EndComp
Wire Wire Line
	3300 8400 3450 8400
Connection ~ 3450 8400
Wire Wire Line
	3300 8300 3450 8300
Wire Wire Line
	3450 8300 3450 8600
Text GLabel 7550 5550 0    51   Input ~ 0
USB_DP
Text GLabel 7550 5450 0    51   Input ~ 0
USB_DM
Wire Wire Line
	7550 5450 7800 5450
Wire Wire Line
	7550 5550 7800 5550
Wire Wire Line
	3300 7900 3500 7900
Wire Wire Line
	4300 7900 4300 8000
Wire Wire Line
	4300 8500 4300 8600
$Comp
L GND #PWR021
U 1 1 53536A8F
P 4300 9200
F 0 "#PWR021" H 4300 9200 30  0001 C CNN
F 1 "GND" H 4300 9130 30  0001 C CNN
F 2 "" H 4300 9200 60  0000 C CNN
F 3 "" H 4300 9200 60  0000 C CNN
	1    4300 9200
	1    0    0    -1  
$EndComp
Wire Wire Line
	4300 9100 4300 9200
Wire Wire Line
	4050 8550 4550 8550
Connection ~ 4300 8550
$Comp
L C C4
U 1 1 53536C42
P 4550 8250
F 0 "C4" H 4550 8350 40  0000 L CNN
F 1 "470p" H 4556 8165 40  0000 L CNN
F 2 "" H 4588 8100 30  0000 C CNN
F 3 "" H 4550 8250 60  0000 C CNN
	1    4550 8250
	1    0    0    -1  
$EndComp
Wire Wire Line
	4550 7900 4550 8050
Connection ~ 4300 7900
Wire Wire Line
	4550 8550 4550 8450
Wire Wire Line
	4850 7900 4850 8050
Connection ~ 4550 7900
Connection ~ 4850 7900
$Comp
L GND #PWR022
U 1 1 53537098
P 4850 8550
F 0 "#PWR022" H 4850 8550 30  0001 C CNN
F 1 "GND" H 4850 8480 30  0001 C CNN
F 2 "" H 4850 8550 60  0000 C CNN
F 3 "" H 4850 8550 60  0000 C CNN
	1    4850 8550
	1    0    0    -1  
$EndComp
Wire Wire Line
	4850 8450 4850 8550
Wire Wire Line
	4050 8550 4050 8100
Wire Wire Line
	4050 8100 3300 8100
Text GLabel 5050 7900 2    60   Output ~ 0
VBUCK
Text Notes 4350 5800 0    60   ~ 0
Disconnect solar boost from cap when \nbuck is enabled to charge cap\nDisable BQ25570 and enable \nTPS62750 or use MOSFETS?
Wire Wire Line
	4650 1350 4650 1500
Wire Wire Line
	4650 1500 4800 1500
Wire Wire Line
	4650 1950 4650 1800
Wire Wire Line
	4650 1800 4800 1800
Wire Wire Line
	4000 1000 5700 1000
Wire Wire Line
	5700 1000 5700 1450
Wire Wire Line
	5700 1450 5600 1450
Wire Wire Line
	4000 2850 5700 2850
Wire Wire Line
	5700 2850 5700 1850
Wire Wire Line
	5700 1850 5600 1850
Wire Wire Line
	5600 1550 5700 1550
Wire Wire Line
	5700 1550 5700 1750
Wire Wire Line
	5700 1750 5600 1750
Wire Wire Line
	5700 1650 6050 1650
Connection ~ 5700 1650
Text Notes 4050 3350 0    60   ~ 12
DC/DC Selector
Text Notes 3500 3500 0    60   ~ 0
Swap Solar Boost and USB Buck to Ultracapacitor
$Comp
L FDC6420C U5
U 1 1 535727F3
P 5100 4400
F 0 "U5" H 4900 4700 60  0000 C CNN
F 1 "FDC6420C" H 5100 4100 60  0000 C CNN
F 2 "" H 5150 4100 60  0000 C CNN
F 3 "" H 5150 4100 60  0000 C CNN
	1    5100 4400
	1    0    0    -1  
$EndComp
Text GLabel 3900 3750 0    60   Input ~ 0
VBUCK
Text GLabel 3900 5600 0    60   Input ~ 0
VSOLAR
$Comp
L R R7
U 1 1 535727FC
P 4300 4400
F 0 "R7" V 4380 4400 40  0000 C CNN
F 1 "4.7k" V 4307 4401 40  0000 C CNN
F 2 "" V 4230 4400 30  0000 C CNN
F 3 "" H 4300 4400 30  0000 C CNN
	1    4300 4400
	1    0    0    -1  
$EndComp
$Comp
L R R8
U 1 1 53572802
P 4300 5000
F 0 "R8" V 4380 5000 40  0000 C CNN
F 1 "6.8k" V 4307 5001 40  0000 C CNN
F 2 "" V 4230 5000 30  0000 C CNN
F 3 "" H 4300 5000 30  0000 C CNN
	1    4300 5000
	1    0    0    -1  
$EndComp
Wire Wire Line
	3700 4100 4550 4100
Wire Wire Line
	4300 4100 4300 4150
Wire Wire Line
	4300 4650 4300 4750
$Comp
L GND #PWR023
U 1 1 5357280B
P 4300 5350
F 0 "#PWR023" H 4300 5350 30  0001 C CNN
F 1 "GND" H 4300 5280 30  0001 C CNN
F 2 "" H 4300 5350 60  0000 C CNN
F 3 "" H 4300 5350 60  0000 C CNN
	1    4300 5350
	1    0    0    -1  
$EndComp
Wire Wire Line
	4300 5250 4300 5350
Connection ~ 4300 4100
Wire Wire Line
	4550 4700 4300 4700
Connection ~ 4300 4700
Text GLabel 5900 4400 2    60   Output ~ 0
VCAP
Wire Wire Line
	4550 4100 4550 4250
Wire Wire Line
	4550 4250 4700 4250
Wire Wire Line
	4550 4700 4550 4550
Wire Wire Line
	4550 4550 4700 4550
Wire Wire Line
	3900 3750 5600 3750
Wire Wire Line
	5600 3750 5600 4200
Wire Wire Line
	5600 4200 5500 4200
Wire Wire Line
	3900 5600 5600 5600
Wire Wire Line
	5600 5600 5600 4600
Wire Wire Line
	5600 4600 5500 4600
Wire Wire Line
	5500 4300 5600 4300
Wire Wire Line
	5600 4300 5600 4500
Wire Wire Line
	5600 4500 5500 4500
Wire Wire Line
	5600 4400 5900 4400
Connection ~ 5600 4400
Wire Wire Line
	1100 8000 1100 7900
Connection ~ 1100 7900
Wire Wire Line
	1100 8400 1100 8500
Text GLabel 950  8750 0    60   Input ~ 0
EN
Wire Wire Line
	1850 8000 1850 7900
$Comp
L R R1
U 1 1 5363B4D0
P 1350 9050
F 0 "R1" V 1430 9050 40  0000 C CNN
F 1 "100k" V 1357 9051 40  0000 C CNN
F 2 "" V 1280 9050 30  0000 C CNN
F 3 "" H 1350 9050 30  0000 C CNN
	1    1350 9050
	1    0    0    -1  
$EndComp
Wire Wire Line
	2000 8100 1350 8100
Wire Wire Line
	1350 8100 1350 8800
Wire Wire Line
	950  8750 1350 8750
Connection ~ 1350 8750
$Comp
L GND #PWR024
U 1 1 5363B8A7
P 1350 9400
F 0 "#PWR024" H 1350 9400 30  0001 C CNN
F 1 "GND" H 1350 9330 30  0001 C CNN
F 2 "" H 1350 9400 60  0000 C CNN
F 3 "" H 1350 9400 60  0000 C CNN
	1    1350 9400
	1    0    0    -1  
$EndComp
Wire Wire Line
	1350 9300 1350 9400
Wire Wire Line
	3300 8200 3650 8200
Text GLabel 3150 8950 0    60   Input ~ 0
H/L
Wire Wire Line
	3650 8200 3650 8800
$Comp
L R R6
U 1 1 5363C0B0
P 3650 9050
F 0 "R6" V 3730 9050 40  0000 C CNN
F 1 "100k" V 3657 9051 40  0000 C CNN
F 2 "" V 3580 9050 30  0000 C CNN
F 3 "" H 3650 9050 30  0000 C CNN
	1    3650 9050
	1    0    0    -1  
$EndComp
Connection ~ 3650 8750
$Comp
L GND #PWR025
U 1 1 5363C1B5
P 3650 9400
F 0 "#PWR025" H 3650 9400 30  0001 C CNN
F 1 "GND" H 3650 9330 30  0001 C CNN
F 2 "" H 3650 9400 60  0000 C CNN
F 3 "" H 3650 9400 60  0000 C CNN
	1    3650 9400
	1    0    0    -1  
$EndComp
Wire Wire Line
	3650 9300 3650 9400
Text GLabel 5100 10150 0    60   Input ~ 0
VCAP
$Comp
L C C6
U 1 1 53640557
P 5500 10400
F 0 "C6" H 5500 10500 40  0000 L CNN
F 1 "10" H 5506 10315 40  0000 L CNN
F 2 "" H 5538 10250 30  0000 C CNN
F 3 "" H 5500 10400 60  0000 C CNN
	1    5500 10400
	1    0    0    -1  
$EndComp
Wire Wire Line
	5100 10150 6000 10150
$Comp
L GND #PWR026
U 1 1 5364065E
P 5500 10700
F 0 "#PWR026" H 5500 10700 30  0001 C CNN
F 1 "GND" H 5500 10630 30  0001 C CNN
F 2 "" H 5500 10700 60  0000 C CNN
F 3 "" H 5500 10700 60  0000 C CNN
	1    5500 10700
	1    0    0    -1  
$EndComp
Text GLabel 6000 10150 2    60   Output ~ 0
VCAP
Wire Wire Line
	5500 10600 5500 10700
Text GLabel 2350 3550 2    51   Input ~ 0
SCLK
Text GLabel 2350 3650 2    51   Input ~ 0
SI
Text GLabel 2350 3750 2    51   Input ~ 0
SCS
Text GLabel 2350 3850 2    51   Input ~ 0
EXTCOMIN
Text GLabel 2350 3950 2    51   Input ~ 0
DISP
Wire Wire Line
	2350 3550 2100 3550
Wire Wire Line
	2350 3650 2100 3650
Wire Wire Line
	2350 3750 2100 3750
Wire Wire Line
	2350 3850 2100 3850
Wire Wire Line
	2350 3950 2100 3950
Wire Wire Line
	5500 10200 5500 10150
Connection ~ 5500 10150
$Comp
L GND #PWR027
U 1 1 53652070
P 2200 4750
F 0 "#PWR027" H 2200 4750 30  0001 C CNN
F 1 "GND" H 2200 4680 30  0001 C CNN
F 2 "" H 2200 4750 60  0000 C CNN
F 3 "" H 2200 4750 60  0000 C CNN
	1    2200 4750
	1    0    0    -1  
$EndComp
Wire Wire Line
	2100 4450 2200 4450
Wire Wire Line
	2200 4150 2200 4750
Wire Wire Line
	2100 4350 2200 4350
Connection ~ 2200 4450
Wire Wire Line
	2100 4150 2200 4150
Connection ~ 2200 4350
Text GLabel 7550 5050 0    51   Input ~ 0
DBG_SWCLK
Wire Wire Line
	7550 5050 7800 5050
Text GLabel 7550 5150 0    51   BiDi ~ 0
DBG_SWDIO
Wire Wire Line
	7550 5150 7800 5150
Text GLabel 7550 5250 0    51   Output ~ 0
DBG_SWO
Wire Wire Line
	7800 5250 7550 5250
$Comp
L CRYSTAL X1
U 1 1 53670DD9
P 12650 9550
F 0 "X1" H 12650 9700 60  0000 C CNN
F 1 "48MHz" H 12650 9400 60  0000 C CNN
F 2 "" H 12650 9550 60  0000 C CNN
F 3 "" H 12650 9550 60  0000 C CNN
	1    12650 9550
	1    0    0    -1  
$EndComp
$Comp
L CRYSTAL X2
U 1 1 53670DE8
P 14800 9550
F 0 "X2" H 14800 9700 60  0000 C CNN
F 1 "32.768kHz" H 14800 9400 60  0000 C CNN
F 2 "" H 14800 9550 60  0000 C CNN
F 3 "" H 14800 9550 60  0000 C CNN
	1    14800 9550
	1    0    0    -1  
$EndComp
Text Notes 12300 8900 0    60   ~ 0
High Frequency Clock
Text Notes 5200 9850 0    60   ~ 0
Ultracapacitor
Wire Notes Line
	500  9600 6450 9600
Wire Notes Line
	4650 9600 4650 11200
Wire Notes Line
	6450 9600 6450 11200
Wire Wire Line
	5050 7900 4100 7900
Wire Notes Line
	500  7150 5600 7150
Wire Notes Line
	5600 7150 5600 9600
Text GLabel 13150 9250 2    60   Input ~ 0
HFXTAL_P
Text GLabel 13150 9100 2    60   Output ~ 0
HFXTAL_N
$Comp
L C C18
U 1 1 536835B5
P 13050 9850
F 0 "C18" H 13050 9950 40  0000 L CNN
F 1 "7.5p" H 13056 9765 40  0000 L CNN
F 2 "" H 13088 9700 30  0000 C CNN
F 3 "" H 13050 9850 60  0000 C CNN
	1    13050 9850
	1    0    0    -1  
$EndComp
$Comp
L C C17
U 1 1 536835C4
P 12250 9850
F 0 "C17" H 12250 9950 40  0000 L CNN
F 1 "7.5p" H 12256 9765 40  0000 L CNN
F 2 "" H 12288 9700 30  0000 C CNN
F 3 "" H 12250 9850 60  0000 C CNN
	1    12250 9850
	1    0    0    -1  
$EndComp
$Comp
L GND #PWR028
U 1 1 53683906
P 13050 10150
F 0 "#PWR028" H 13050 10150 30  0001 C CNN
F 1 "GND" H 13050 10080 30  0001 C CNN
F 2 "" H 13050 10150 60  0000 C CNN
F 3 "" H 13050 10150 60  0000 C CNN
	1    13050 10150
	1    0    0    -1  
$EndComp
$Comp
L GND #PWR029
U 1 1 53683915
P 12250 10150
F 0 "#PWR029" H 12250 10150 30  0001 C CNN
F 1 "GND" H 12250 10080 30  0001 C CNN
F 2 "" H 12250 10150 60  0000 C CNN
F 3 "" H 12250 10150 60  0000 C CNN
	1    12250 10150
	1    0    0    -1  
$EndComp
Wire Wire Line
	13050 10050 13050 10150
Wire Wire Line
	12250 10050 12250 10150
Wire Wire Line
	13150 9250 13050 9250
Wire Wire Line
	13050 9250 13050 9650
Wire Wire Line
	13050 9550 12950 9550
Connection ~ 13050 9550
Wire Wire Line
	12350 9550 12250 9550
Wire Wire Line
	12250 9100 12250 9650
Wire Wire Line
	12250 9100 13150 9100
Connection ~ 12250 9550
Text GLabel 15300 9100 2    60   Output ~ 0
LFXTAL_N
Text GLabel 15300 9250 2    60   Input ~ 0
LFXTAL_P
$Comp
L C C19
U 1 1 53684712
P 14400 9850
F 0 "C19" H 14400 9950 40  0000 L CNN
F 1 "18p" H 14406 9765 40  0000 L CNN
F 2 "" H 14438 9700 30  0000 C CNN
F 3 "" H 14400 9850 60  0000 C CNN
	1    14400 9850
	1    0    0    -1  
$EndComp
$Comp
L C C20
U 1 1 53684721
P 15200 9850
F 0 "C20" H 15200 9950 40  0000 L CNN
F 1 "18p" H 15206 9765 40  0000 L CNN
F 2 "" H 15238 9700 30  0000 C CNN
F 3 "" H 15200 9850 60  0000 C CNN
	1    15200 9850
	1    0    0    -1  
$EndComp
Text Notes 14300 8900 0    60   ~ 0
Low Frequency Clock
$Comp
L GND #PWR030
U 1 1 53684BB3
P 15200 10150
F 0 "#PWR030" H 15200 10150 30  0001 C CNN
F 1 "GND" H 15200 10080 30  0001 C CNN
F 2 "" H 15200 10150 60  0000 C CNN
F 3 "" H 15200 10150 60  0000 C CNN
	1    15200 10150
	1    0    0    -1  
$EndComp
$Comp
L GND #PWR031
U 1 1 53684BC2
P 14400 10150
F 0 "#PWR031" H 14400 10150 30  0001 C CNN
F 1 "GND" H 14400 10080 30  0001 C CNN
F 2 "" H 14400 10150 60  0000 C CNN
F 3 "" H 14400 10150 60  0000 C CNN
	1    14400 10150
	1    0    0    -1  
$EndComp
Wire Wire Line
	15200 10050 15200 10150
Wire Wire Line
	14400 10050 14400 10150
Wire Wire Line
	15200 9250 15200 9650
Wire Wire Line
	15200 9550 15100 9550
Wire Wire Line
	14400 9100 14400 9650
Wire Wire Line
	14400 9550 14500 9550
Wire Wire Line
	15300 9250 15200 9250
Connection ~ 15200 9550
Wire Wire Line
	15300 9100 14400 9100
Connection ~ 14400 9550
Wire Notes Line
	11900 8700 16050 8700
Wire Notes Line
	14000 8700 14000 10400
Wire Notes Line
	11900 8700 11900 10400
Text GLabel 7550 10350 0    51   Input ~ 0
HFXTAL_N
Wire Wire Line
	7550 10350 7800 10350
Text GLabel 7550 10250 0    51   Output ~ 0
HFXTAL_P
Wire Wire Line
	7800 10250 7550 10250
Text GLabel 7550 10050 0    51   Input ~ 0
LFXTAL_N
Text GLabel 7550 9950 0    51   Output ~ 0
LFXTAL_P
Wire Wire Line
	7800 9950 7550 9950
Wire Wire Line
	7800 10050 7550 10050
Text GLabel 7850 1200 0    59   Input ~ 0
MCUDBG_RESET
Text GLabel 2000 6250 2    51   Output ~ 0
MCUDBG_RESET
Wire Notes Line
	3400 500  3400 7150
Wire Notes Line
	500  3100 6350 3100
Wire Notes Line
	6350 500  6350 6150
Text GLabel 2000 5850 2    51   BiDi ~ 0
DBG_SWDIO
$Comp
L C C22
U 1 1 536AD890
P 14100 5150
F 0 "C22" H 14100 5250 40  0000 L CNN
F 1 "1N" H 14106 5065 40  0000 L CNN
F 2 "" H 14138 5000 30  0000 C CNN
F 3 "" H 14100 5150 60  0000 C CNN
	1    14100 5150
	1    0    0    -1  
$EndComp
$Comp
L C C21
U 1 1 536AD89F
P 13900 5150
F 0 "C21" H 13900 5250 40  0000 L CNN
F 1 "1N" H 13906 5065 40  0000 L CNN
F 2 "" H 13938 5000 30  0000 C CNN
F 3 "" H 13900 5150 60  0000 C CNN
	1    13900 5150
	1    0    0    -1  
$EndComp
$Comp
L R R22
U 1 1 536AD8AE
P 15250 4500
F 0 "R22" V 15330 4500 40  0000 C CNN
F 1 "100" V 15257 4501 40  0000 C CNN
F 2 "" V 15180 4500 30  0000 C CNN
F 3 "" H 15250 4500 30  0000 C CNN
	1    15250 4500
	0    -1   -1   0   
$EndComp
$Comp
L R R23
U 1 1 536AD8BD
P 15250 4800
F 0 "R23" V 15330 4800 40  0000 C CNN
F 1 "100" V 15257 4801 40  0000 C CNN
F 2 "" V 15180 4800 30  0000 C CNN
F 3 "" H 15250 4800 30  0000 C CNN
	1    15250 4800
	0    -1   -1   0   
$EndComp
Text GLabel 7550 4550 0    51   Output ~ 0
SCLK
Text GLabel 7550 4350 0    51   Output ~ 0
SI
Text GLabel 7550 4650 0    51   Output ~ 0
SCS
Text GLabel 7550 4250 0    51   Output ~ 0
EXTCOMIN
Text GLabel 7550 4150 0    51   Output ~ 0
DISP
Wire Wire Line
	7850 1200 8450 1200
Wire Notes Line
	6350 3500 12950 3500
Wire Notes Line
	11950 3500 11950 500 
Wire Notes Line
	6350 6150 3400 6150
$Comp
L R R20
U 1 1 536AE4F7
P 13900 4100
F 0 "R20" V 13980 4100 40  0000 C CNN
F 1 "1M" V 13907 4101 40  0000 C CNN
F 2 "" V 13830 4100 30  0000 C CNN
F 3 "" H 13900 4100 30  0000 C CNN
	1    13900 4100
	1    0    0    -1  
$EndComp
$Comp
L R R21
U 1 1 536AE506
P 14100 4100
F 0 "R21" V 14180 4100 40  0000 C CNN
F 1 "1M" V 14107 4101 40  0000 C CNN
F 2 "" V 14030 4100 30  0000 C CNN
F 3 "" H 14100 4100 30  0000 C CNN
	1    14100 4100
	1    0    0    -1  
$EndComp
Text GLabel 2000 6150 2    51   Input ~ 0
DBG_SWO
Text GLabel 7550 6650 0    51   Input ~ 0
A
Text GLabel 7550 6750 0    51   Input ~ 0
B
Text GLabel 7550 4750 0    51   Output ~ 0
EN
Text GLabel 7550 4850 0    51   Output ~ 0
H/L
Text GLabel 7550 7550 0    51   Input ~ 0
VCAP
Text GLabel 7550 6550 0    51   Input ~ 0
UP
Text GLabel 7550 6450 0    51   Input ~ 0
DOWN
Text GLabel 7550 6350 0    51   Input ~ 0
LEFT
Text GLabel 7550 6250 0    51   Input ~ 0
RIGHT
Wire Wire Line
	14700 950  13700 950 
Wire Wire Line
	14900 1700 13450 1700
Wire Wire Line
	14900 2000 13450 2000
Wire Wire Line
	14900 2300 13450 2300
Wire Wire Line
	14900 2600 13450 2600
Wire Wire Line
	14900 2900 13450 2900
Wire Wire Line
	14900 3200 13450 3200
Wire Wire Line
	14200 800  14200 950 
Connection ~ 14200 950 
Text GLabel 2350 4050 2    51   Output ~ 0
VSOLAR
Wire Wire Line
	2100 4050 2350 4050
Wire Wire Line
	2100 4250 2850 4250
Text GLabel 13550 4500 0    51   Output ~ 0
POWER
Text GLabel 13550 4800 0    51   Output ~ 0
OPTION
$Comp
L GND #PWR032
U 1 1 536B13C2
P 15600 5000
F 0 "#PWR032" H 15600 5000 30  0001 C CNN
F 1 "GND" H 15600 4930 30  0001 C CNN
F 2 "" H 15600 5000 60  0000 C CNN
F 3 "" H 15600 5000 60  0000 C CNN
	1    15600 5000
	1    0    0    -1  
$EndComp
$Comp
L GND #PWR033
U 1 1 536B1540
P 14000 5550
F 0 "#PWR033" H 14000 5550 30  0001 C CNN
F 1 "GND" H 14000 5480 30  0001 C CNN
F 2 "" H 14000 5550 60  0000 C CNN
F 3 "" H 14000 5550 60  0000 C CNN
	1    14000 5550
	1    0    0    -1  
$EndComp
$Comp
L +3.3V #PWR034
U 1 1 536B1852
P 14000 3650
F 0 "#PWR034" H 14000 3610 30  0001 C CNN
F 1 "+3.3V" H 14000 3760 30  0000 C CNN
F 2 "" H 14000 3650 60  0000 C CNN
F 3 "" H 14000 3650 60  0000 C CNN
	1    14000 3650
	1    0    0    -1  
$EndComp
Wire Wire Line
	14000 3650 14000 3750
Wire Wire Line
	13900 3750 14100 3750
Wire Wire Line
	13900 3750 13900 3850
Wire Wire Line
	14100 3750 14100 3850
Connection ~ 14000 3750
Wire Wire Line
	14250 4500 13550 4500
Wire Wire Line
	14250 4800 13550 4800
Wire Wire Line
	13900 4350 13900 4950
Connection ~ 13900 4500
Wire Wire Line
	14100 4350 14100 4950
Connection ~ 14100 4800
Wire Wire Line
	13900 5350 13900 5450
Wire Wire Line
	13900 5450 14100 5450
Wire Wire Line
	14000 5450 14000 5550
Wire Wire Line
	14100 5450 14100 5350
Connection ~ 14000 5450
Wire Wire Line
	14850 4500 15000 4500
Wire Wire Line
	14850 4800 15000 4800
Wire Wire Line
	15500 4500 15600 4500
Wire Wire Line
	15600 4500 15600 5000
Wire Wire Line
	15500 4800 15600 4800
Connection ~ 15600 4800
Text GLabel 7550 6850 0    51   Input ~ 0
POWER
Text GLabel 7550 6950 0    51   Input ~ 0
OPTION
Wire Notes Line
	12950 3500 12950 5850
Wire Notes Line
	12950 5850 16050 5850
Wire Wire Line
	7800 4350 7550 4350
Wire Wire Line
	7550 4550 7800 4550
Wire Wire Line
	7550 4650 7800 4650
Wire Wire Line
	7550 4150 7800 4150
Wire Wire Line
	7550 4250 7800 4250
Wire Wire Line
	7800 7550 7550 7550
Wire Wire Line
	7800 4750 7550 4750
Wire Wire Line
	7800 4850 7550 4850
Wire Wire Line
	7550 6250 7800 6250
Wire Wire Line
	7800 6350 7550 6350
Wire Wire Line
	7550 6450 7800 6450
Wire Wire Line
	7800 6550 7550 6550
Wire Wire Line
	7550 6650 7800 6650
Wire Wire Line
	7800 6750 7550 6750
Wire Wire Line
	7550 6850 7800 6850
Wire Wire Line
	7800 6950 7550 6950
Text Notes 1650 3250 0    60   ~ 0
Board FPC
Wire Notes Line
	3400 5000 500  5000
$Comp
L GND #PWR035
U 1 1 537413E3
P 1850 6350
F 0 "#PWR035" H 1850 6350 30  0001 C CNN
F 1 "GND" H 1850 6280 30  0001 C CNN
F 2 "" H 1850 6350 60  0000 C CNN
F 3 "" H 1850 6350 60  0000 C CNN
	1    1850 6350
	1    0    0    -1  
$EndComp
Wire Wire Line
	1750 5950 1850 5950
Wire Wire Line
	1850 5950 1850 6350
Wire Wire Line
	2000 6150 1750 6150
Wire Wire Line
	1750 6050 2000 6050
Wire Wire Line
	1750 5850 2000 5850
$Comp
L +3.3V #PWR036
U 1 1 53741AD9
P 1850 5550
F 0 "#PWR036" H 1850 5510 30  0001 C CNN
F 1 "+3.3V" H 1850 5660 30  0000 C CNN
F 2 "" H 1850 5550 60  0000 C CNN
F 3 "" H 1850 5550 60  0000 C CNN
	1    1850 5550
	1    0    0    -1  
$EndComp
Wire Wire Line
	1850 5550 1850 5750
Wire Wire Line
	1850 5750 1750 5750
NoConn ~ 7800 5650
NoConn ~ 7800 4450
NoConn ~ 7800 7050
NoConn ~ 7800 7150
NoConn ~ 7800 7250
NoConn ~ 7800 7350
NoConn ~ 7800 7650
NoConn ~ 7800 7750
NoConn ~ 7800 7850
NoConn ~ 7800 7950
NoConn ~ 7800 8050
NoConn ~ 7800 8150
NoConn ~ 7800 8250
NoConn ~ 7800 8350
NoConn ~ 7800 8950
NoConn ~ 7800 9050
NoConn ~ 7800 9150
NoConn ~ 7800 9250
NoConn ~ 7800 9350
NoConn ~ 7800 9450
NoConn ~ 7800 9550
NoConn ~ 7800 9650
NoConn ~ 7800 9750
NoConn ~ 7800 10150
Text Notes 9000 3750 0    60   ~ 0
Microcontroller inputs and outputs
$Comp
L +3.3V #PWR037
U 1 1 53741C62
P 14550 3650
F 0 "#PWR037" H 14550 3610 30  0001 C CNN
F 1 "+3.3V" H 14550 3760 30  0000 C CNN
F 2 "" H 14550 3650 60  0000 C CNN
F 3 "" H 14550 3650 60  0000 C CNN
	1    14550 3650
	1    0    0    -1  
$EndComp
$Comp
L PWR_FLAG #FLG038
U 1 1 537420F5
P 14800 3650
F 0 "#FLG038" H 14800 3745 30  0001 C CNN
F 1 "PWR_FLAG" H 14800 3830 30  0000 C CNN
F 2 "" H 14800 3650 60  0000 C CNN
F 3 "" H 14800 3650 60  0000 C CNN
	1    14800 3650
	1    0    0    -1  
$EndComp
Wire Wire Line
	14550 3650 14550 3750
Wire Wire Line
	14550 3750 14800 3750
Wire Wire Line
	14800 3750 14800 3650
$Comp
L +3.3V #PWR039
U 1 1 53778CBB
P 2850 4150
F 0 "#PWR039" H 2850 4110 30  0001 C CNN
F 1 "+3.3V" H 2850 4260 30  0000 C CNN
F 2 "" H 2850 4150 60  0000 C CNN
F 3 "" H 2850 4150 60  0000 C CNN
	1    2850 4150
	1    0    0    -1  
$EndComp
Wire Wire Line
	2850 4250 2850 4150
$Comp
L +3.3V #PWR040
U 1 1 53778FAA
P 6050 1400
F 0 "#PWR040" H 6050 1360 30  0001 C CNN
F 1 "+3.3V" H 6050 1510 30  0000 C CNN
F 2 "" H 6050 1400 60  0000 C CNN
F 3 "" H 6050 1400 60  0000 C CNN
	1    6050 1400
	1    0    0    -1  
$EndComp
Wire Wire Line
	6050 1650 6050 1400
$Comp
L +3.3V #PWR041
U 1 1 5377911C
P 11400 850
F 0 "#PWR041" H 11400 810 30  0001 C CNN
F 1 "+3.3V" H 11400 960 30  0000 C CNN
F 2 "" H 11400 850 60  0000 C CNN
F 3 "" H 11400 850 60  0000 C CNN
	1    11400 850 
	1    0    0    -1  
$EndComp
$Comp
L +3.3V #PWR042
U 1 1 5377928F
P 6900 1150
F 0 "#PWR042" H 6900 1110 30  0001 C CNN
F 1 "+3.3V" H 6900 1260 30  0000 C CNN
F 2 "" H 6900 1150 60  0000 C CNN
F 3 "" H 6900 1150 60  0000 C CNN
	1    6900 1150
	1    0    0    -1  
$EndComp
$Comp
L +5V #PWR043
U 1 1 537796FE
P 3100 1050
F 0 "#PWR043" H 3100 1140 20  0001 C CNN
F 1 "+5V" H 3100 1140 30  0000 C CNN
F 2 "" H 3100 1050 60  0000 C CNN
F 3 "" H 3100 1050 60  0000 C CNN
	1    3100 1050
	1    0    0    -1  
$EndComp
Wire Wire Line
	3100 1250 3100 1050
$Comp
L +5V #PWR044
U 1 1 53779871
P 3750 1250
F 0 "#PWR044" H 3750 1340 20  0001 C CNN
F 1 "+5V" H 3750 1340 30  0000 C CNN
F 2 "" H 3750 1250 60  0000 C CNN
F 3 "" H 3750 1250 60  0000 C CNN
	1    3750 1250
	1    0    0    -1  
$EndComp
Wire Wire Line
	3750 1250 3750 1350
$Comp
L +5V #PWR045
U 1 1 537799E5
P 3700 4000
F 0 "#PWR045" H 3700 4090 20  0001 C CNN
F 1 "+5V" H 3700 4090 30  0000 C CNN
F 2 "" H 3700 4000 60  0000 C CNN
F 3 "" H 3700 4000 60  0000 C CNN
	1    3700 4000
	1    0    0    -1  
$EndComp
Wire Wire Line
	3700 4000 3700 4100
$Comp
L +5V #PWR046
U 1 1 53779B5A
P 8100 800
F 0 "#PWR046" H 8100 890 20  0001 C CNN
F 1 "+5V" H 8100 890 30  0000 C CNN
F 2 "" H 8100 800 60  0000 C CNN
F 3 "" H 8100 800 60  0000 C CNN
	1    8100 800 
	1    0    0    -1  
$EndComp
$Comp
L +5V #PWR047
U 1 1 53779CD0
P 700 7700
F 0 "#PWR047" H 700 7790 20  0001 C CNN
F 1 "+5V" H 700 7790 30  0000 C CNN
F 2 "" H 700 7700 60  0000 C CNN
F 3 "" H 700 7700 60  0000 C CNN
	1    700  7700
	1    0    0    -1  
$EndComp
Wire Wire Line
	700  7700 700  7900
$Comp
L CONN_6 P1
U 1 1 5377A4CB
P 1400 6000
F 0 "P1" V 1350 6000 60  0000 C CNN
F 1 "CONN_6" V 1450 6000 60  0000 C CNN
F 2 "" H 1400 6000 60  0000 C CNN
F 3 "" H 1400 6000 60  0000 C CNN
	1    1400 6000
	-1   0    0    -1  
$EndComp
Wire Wire Line
	1750 6250 2000 6250
Text GLabel 2000 6050 2    51   Output ~ 0
DBG_SWCLK
NoConn ~ 7800 5350
Text GLabel 8100 2150 0    51   Output ~ 0
VREG0
Wire Wire Line
	8300 1900 8300 2150
Wire Wire Line
	8300 2150 8100 2150
Connection ~ 8300 1900
NoConn ~ 1300 1650
Wire Wire Line
	600  800  550  800 
Wire Wire Line
	550  800  550  1400
Wire Wire Line
	600  900  550  900 
Connection ~ 550  900 
Wire Wire Line
	600  1000 550  1000
Connection ~ 550  1000
Wire Wire Line
	1800 800  1850 800 
Wire Wire Line
	1850 800  1850 1400
Wire Wire Line
	1800 900  1850 900 
Connection ~ 1850 900 
Wire Wire Line
	1800 1000 1850 1000
Connection ~ 1850 1000
Wire Wire Line
	3150 8950 3300 8950
Wire Wire Line
	3300 8950 3300 8750
Wire Wire Line
	3300 8750 3650 8750
$Comp
L GND #PWR?
U 1 1 53D707A8
P 2650 9100
F 0 "#PWR?" H 2650 9100 30  0001 C CNN
F 1 "GND" H 2650 9030 30  0001 C CNN
F 2 "" H 2650 9100 60  0000 C CNN
F 3 "" H 2650 9100 60  0000 C CNN
	1    2650 9100
	1    0    0    -1  
$EndComp
Wire Wire Line
	2650 9000 2650 9100
$EndSCHEMATC
